Division,WeightClassKg,Place,Name,Team,BodyweightKg,Best3SquatKg,Best3BenchKg,Best3DeadliftKg,TotalKg,Equipment,Event,Sex
Boys,51.71,1,Reese Mazurek,Bandera,38.06,34.02,29.48,43.09,106.59,Single-ply,SBD,M
Boys,55.79,1,Leo Costilla,Seguin,54.84,113.4,74.84,145.15,333.39,Single-ply,SBD,M
Boys,59.87,1,Aden Rackley,Marion,58.65,106.59,68.04,136.08,310.71,Single-ply,SBD,M
Boys,59.87,2,Justin Beal,Bandera,59.74,113.4,68.04,106.59,288.03,Single-ply,SBD,M
Boys,59.87,3,Isaiah Barfield,San Antonio Southwest Legacy,56.11,99.79,68.04,117.93,285.76,Single-ply,SBD,M
Boys,59.87,4,Jacob Ricks,Pleasanton,57.83,111.13,61.23,111.13,283.5,Single-ply,SBD,M
Boys,59.87,5,Nate Brawner,Seguin,59.56,95.25,61.23,120.2,276.69,Single-ply,SBD,M
Boys,59.87,6,Jacob Haas,Bandera,57.88,102.06,43.09,124.74,269.89,Single-ply,SBD,M
Boys,59.87,7,Wyatt Smith,Seguin,57.24,79.38,63.5,106.59,249.48,Single-ply,SBD,M
Boys,59.87,8,Jackson Farjardo,Bandera,56.93,86.18,54.43,106.59,247.21,Single-ply,SBD,M
Boys,59.87,9,Cody Jureczki,Bandera,59.51,97.52,45.36,104.33,247.21,Single-ply,SBD,M
Boys,67.13,1,Brandon Martinez,Cotulla,65,136.08,61.23,142.88,340.19,Single-ply,SBD,M
Boys,67.13,2,Sonny Aldaco,Cotulla,64.5,133.81,74.84,129.27,337.93,Single-ply,SBD,M
Boys,67.13,3,Harrison Gaenzel,Pleasanton,62.96,127.01,74.84,129.27,331.12,Single-ply,SBD,M
Boys,67.13,4,Nathaniel Cerna,San Antonio Southwest Legacy,66.41,129.27,68.04,129.27,326.59,Single-ply,SBD,M
Boys,67.13,5,Diego Alfaro,San Antonio Southwest Legacy,65.54,77.11,72.57,129.27,278.96,Single-ply,SBD,M
Boys,67.13,6,Jesus Guevara,Seguin,61.23,97.52,68.04,102.06,267.62,Single-ply,SBD,M
Boys,74.84,1,Reagan Leone,Cotulla,73.53,145.15,97.52,158.76,401.43,Single-ply,SBD,M
Boys,74.84,2,Mathew Luna,Seguin,72.71,136.08,86.18,145.15,367.41,Single-ply,SBD,M
Boys,74.84,3,Joel Salazar,Seguin,71.58,129.27,83.91,151.95,365.14,Single-ply,SBD,M
Boys,74.84,4,Mason Ruhl,Seguin,73.07,142.88,83.91,133.81,360.61,Single-ply,SBD,M
Boys,74.84,5,Jacob Guajardo,Devine,69.54,136.08,61.23,129.27,326.59,Single-ply,SBD,M
Boys,74.84,6,Samuel Montoya,Marion,72.57,108.86,65.77,147.42,322.05,Single-ply,SBD,M
Boys,74.84,7,Alexander Garcia,San Antonio Southwest Legacy,69.54,104.33,56.7,111.13,272.16,Single-ply,SBD,M
Boys,74.84,8,Gerome Gil,Seguin,67.95,88.45,65.77,108.86,263.08,Single-ply,SBD,M
Boys,74.84,9,Javier Sanchez,Cotulla,68.31,88.45,61.23,99.79,249.48,Single-ply,SBD,M
Boys,82.1,1,Ryan Pena,San Antonio Southwest,76.66,167.83,108.86,181.44,458.13,Single-ply,SBD,M
Boys,82.1,2,R Tavius Gonzales,San Antonio Southwest Legacy,76.88,140.61,90.72,156.49,387.82,Single-ply,SBD,M
Boys,82.1,3,Evan Priest,Devine,78.06,161.03,74.84,142.88,378.75,Single-ply,SBD,M
Boys,82.1,4,Joseph Hernandez,Devine,78.34,140.61,81.65,154.22,376.48,Single-ply,SBD,M
Boys,82.1,5,Cooper Marr,Marion,80.47,120.2,92.99,149.69,362.87,Single-ply,SBD,M
Boys,82.1,6,Santi Herrera,Seguin,79.51,102.06,90.72,147.42,340.19,Single-ply,SBD,M
Boys,82.1,7,Elijah Guerra,San Antonio Southwest Legacy,79.7,86.18,58.97,147.42,292.57,Single-ply,SBD,M
Boys,89.81,1,Liam Demarchi,Bandera,86.23,136.08,90.72,151.95,378.75,Single-ply,SBD,M
Boys,89.81,2,Eden Torres,San Antonio Southwest Legacy,85.87,136.08,81.65,154.22,371.95,Single-ply,SBD,M
Boys,89.81,3,Salvador Damian,Karnes City,84.78,142.88,90.72,136.08,369.68,Single-ply,SBD,M
Boys,89.81,4,Kalob Son,Bandera,88,120.2,79.38,136.08,335.66,Single-ply,SBD,M
Boys,89.81,5,Chris Mott #2,Marion,87.72,111.13,58.97,133.81,303.91,Single-ply,SBD,M
Boys,89.81,6,Javier Canelo,San Antonio Southwest Legacy,82.19,92.99,74.84,127.01,294.84,Single-ply,SBD,M
Boys,99.79,1,Clark Griffin,San Antonio Southwest,95.89,185.97,113.4,192.78,492.15,Single-ply,SBD,M
Boys,99.79,2,Michael Arteaga,San Antonio Southwest Legacy,93.94,151.95,122.47,158.76,433.18,Single-ply,SBD,M
Boys,99.79,3,Wiktor Wasiewicz,Seguin,95.16,142.88,99.79,156.49,399.16,Single-ply,SBD,M
Boys,99.79,4,DJ Nunez,Karnes City,94.53,129.27,70.31,124.74,324.32,Single-ply,SBD,M
Boys,99.79,5,Colton Smith #7,Marion,92.58,90.72,58.97,142.88,292.57,Single-ply,SBD,M
Boys,99.79,6,Juan Garcia,Seguin,96.39,90.72,61.23,138.35,290.3,Single-ply,SBD,M
Boys,99.79,7,Bryce Clemens,Bandera,89.99,104.33,68.04,99.79,272.16,Single-ply,SBD,M
Boys,99.79,8,Jonathon Rodriguez,San Antonio Kennedy,99.74,88.45,56.7,117.93,263.08,Single-ply,SBD,M
Boys,99.79,DQ,Romano Villanueva,San Antonio Kennedy,98.43,138.35,,,,Single-ply,SBD,M
Boys,99.79,DQ,Ross Chavez,Bandera,97.89,,,,,Single-ply,SBD,M
Boys,109.77,1,Michael San Miguel,Pleasanton,104.28,201.85,113.4,183.7,498.95,Single-ply,SBD,M
Boys,109.77,2,Artemio Hernandez,San Antonio Kennedy,101.65,136.08,81.65,170.1,387.82,Single-ply,SBD,M
Boys,109.77,3,Zeke Guzman,Karnes City,104.64,138.35,81.65,145.15,365.14,Single-ply,SBD,M
Boys,109.77,4,Rudy Rodriguez,Devine,109.18,124.74,74.84,113.4,312.98,Single-ply,SBD,M
Boys,109.77,DQ,Ian Rodriguez,San Antonio Southwest Legacy,105.96,,,,,Single-ply,SBD,M
Boys,124.74,1,Jonathon Hernandez,San Antonio Southwest Legacy,112.76,142.88,108.86,197.31,449.06,Single-ply,SBD,M
Boys,124.74,2,Ronnie Winbush,Marion,112.35,167.83,97.52,170.1,435.45,Single-ply,SBD,M
Boys,124.74,3,Francisco Hinojosa,Cotulla,111.49,131.54,88.45,156.49,376.48,Single-ply,SBD,M
Boys,124.74,4,Manuel Reyna,San Antonio Kennedy,116.57,136.08,61.23,142.88,340.19,Single-ply,SBD,M
Boys,124.74,5,Pete Arguijo,Pleasanton,110.04,111.13,79.38,129.27,319.78,Single-ply,SBD,M
Boys,124.74+,1,Diego Anguiano,Pleasanton,136.03,204.12,117.93,183.7,505.76,Single-ply,SBD,M
Boys,124.74+,2,Thomas Ables,Pleasanton,140.48,188.24,92.99,156.49,437.72,Single-ply,SBD,M
Boys,124.74+,3,Eric Aguliar,San Antonio Southwest Legacy,125.65,149.69,74.84,154.22,378.75,Single-ply,SBD,M
Boys,124.74+,4,Cody Shaffer,Karnes City,131.68,90.72,68.04,95.25,254.01,Single-ply,SBD,M
Boys,124.74+,DQ,Patrick Cizek,Bandera,130.27,,,,,Single-ply,SBD,M
