Division,WeightClassKg,Place,Name,Team,BodyweightKg,Best3SquatKg,Best3BenchKg,Best3DeadliftKg,TotalKg,Equipment,Event,Sex
Girls,47.85,1,Kyndall McCasland,Paradise,45.72,95.25,52.16,113.4,260.82,Single-ply,SBD,F
Girls,47.85,2,Ana Rodriguez,Chico,45.9,79.38,38.56,86.18,204.12,Single-ply,SBD,F
Girls,47.85,3,Kelsey Sitz,Archer City,45.09,65.77,43.09,74.84,183.7,Single-ply,SBD,F
Girls,47.85,4,Ana Astello,Santo,47.63,61.23,27.22,81.65,170.1,Single-ply,SBD,F
Girls,51.94,1,Caressa McCasland,Paradise,51.07,99.79,54.43,127.01,281.23,Single-ply,SBD,F
Girls,51.94,2,Emily Wall #1,Nocona,51.17,70.31,38.56,90.72,199.58,Single-ply,SBD,F
Girls,51.94,3,Kelsi McDaniel,Ponder,50.8,88.45,38.56,83.91,210.92,Single-ply,SBD,F
Girls,56.02,1,Kylie Robinson,Bowie,53.16,124.74,49.9,138.35,312.98,Single-ply,SBD,F
Girls,56.02,2,Samantha DeFord,Bowie,55.79,104.33,45.36,108.86,258.55,Single-ply,SBD,F
Girls,56.02,3,Sofie Butler,Bowie,54.16,102.06,61.23,92.99,256.28,Single-ply,SBD,F
Girls,56.02,4,Makenna Wise,Paradise,52.34,83.91,65.77,90.72,240.4,Single-ply,SBD,F
Girls,56.02,5,Shannon Fisher,Santo,54.52,97.52,36.29,92.99,226.8,Single-ply,SBD,F
Girls,56.02,6,Emma Sanders,Olney,53.25,83.91,52.16,79.38,215.46,Single-ply,SBD,F
Girls,56.02,7,Skylerr Patterson,Electra,53.61,83.91,36.29,90.72,210.92,Single-ply,SBD,F
Girls,56.02,8,Christine Hiatt,Olney,54.98,77.11,47.63,79.38,204.12,Single-ply,SBD,F
Girls,56.02,DQ,Lexie Mattis,Alvord,52.89,45.36,,,,Single-ply,SBD,F
Girls,56.02,DQ,Sarah Newberry,Santo,52.98,58.97,,,,Single-ply,SBD,F
Girls,60.1,1,Sofia Fagerstrom,Santo,58.6,129.27,56.7,122.47,308.44,Single-ply,SBD,F
Girls,60.1,2,Carcyn Robertson,Bowie,58.79,120.2,54.43,122.47,297.1,Single-ply,SBD,F
Girls,60.1,3,Haley Pollard,Chico,56.43,102.06,56.7,120.2,278.96,Single-ply,SBD,F
Girls,60.1,4,Madison Metzler,Bowie,56.7,111.13,45.36,115.67,272.16,Single-ply,SBD,F
Girls,60.1,5,Mercedes Carillo,Paradise,57.06,83.91,36.29,86.18,206.38,Single-ply,SBD,F
Girls,67.36,1,Montana Holbach,Bowie,63.5,120.2,54.43,113.4,288.03,Single-ply,SBD,F
Girls,67.36,2,Jessica Vogel,Nocona,61.14,108.86,52.16,117.93,278.96,Single-ply,SBD,F
Girls,67.36,3,Samantha Clement,Archer City,62.05,90.72,47.63,83.91,222.26,Single-ply,SBD,F
Girls,67.36,4,Makenzee Thomas,Alvord,65.14,81.65,36.29,92.99,210.92,Single-ply,SBD,F
Girls,75.07,1,Sydney Wilhelm,Archer City,74.75,140.61,54.43,142.88,337.93,Single-ply,SBD,F
Girls,75.07,2,Lexi Towery,Nocona,69.94,122.47,52.16,136.08,310.71,Single-ply,SBD,F
Girls,75.07,3,Cora Roman,Paradise,71.3,106.59,58.97,115.67,281.23,Single-ply,SBD,F
Girls,75.07,4,Deanna Duensing,Electra,72.94,86.18,36.29,95.25,217.72,Single-ply,SBD,F
Girls,75.07,DQ,Caylen Myracle,Archer City,72.12,74.84,,,,Single-ply,SBD,F
Girls,75.07,DQ,Harley Anderson,Archer City,70.94,102.06,,,,Single-ply,SBD,F
Girls,75.07,DQ,Carrington Davis,Bowie,73.12,131.54,,,,Single-ply,SBD,F
Girls,82.33,1,Mylena Escudero,Bowie,81.47,142.88,56.7,138.35,337.93,Single-ply,SBD,F
Girls,82.33,2,Natalie Hofsiss,Alvord,80.56,136.08,49.9,131.54,317.51,Single-ply,SBD,F
Girls,82.33,3,Melanie Allen,Olney,80.56,111.13,70.31,102.06,283.5,Single-ply,SBD,F
Girls,82.33,4,Brianna Myrick,Paradise,78.74,83.91,40.82,117.93,242.67,Single-ply,SBD,F
Girls,82.33,5,Brooke Vidal,Chico,77.84,99.79,40.82,99.79,240.4,Single-ply,SBD,F
Girls,82.33,6,Kaela Roberds,Alvord,75.39,95.25,43.09,95.25,233.6,Single-ply,SBD,F
Girls,90.04,1,Cristin Martin,Electra,86.45,136.08,52.16,111.13,299.37,Single-ply,SBD,F
Girls,90.04,2,Makayla Martin,Alvord,86.82,129.27,45.36,124.74,299.37,Single-ply,SBD,F
Girls,90.04,3,Hollie Waite,Ponder,88.09,113.4,49.9,97.52,260.82,Single-ply,SBD,F
Girls,90.04,DQ,Kiley Chase,Santo,89.54,74.84,34.02,,,Single-ply,SBD,F
Girls,100.02,1,Allison Ricketts,Alvord,98.16,108.86,49.9,108.86,267.62,Single-ply,SBD,F
Girls,100.02+,1,Deziray Graham,Nocona,118.02,181.44,83.91,151.95,417.3,Single-ply,SBD,F
Girls,100.02+,2,Haley Roberds,Alvord,118.57,136.08,72.57,129.27,337.93,Single-ply,SBD,F
Girls,100.02+,3,Janielle Garcia,Olney,100.7,122.47,70.31,102.06,294.84,Single-ply,SBD,F
Girls,,NS,Rachel Hardin,Chico,,,,,,Single-ply,SBD,F
Girls,,NS,Audrey Lopez,Archer City,,,,,,Single-ply,SBD,F
Girls,,NS,Kyndale Young,Paradise,,,,,,Single-ply,SBD,F
