Division,WeightClassKg,Place,Name,Team,BodyweightKg,Best3SquatKg,Best3BenchKg,Best3DeadliftKg,TotalKg,Equipment,Event,Sex,BirthDate
Boys,51.71,1,Josiah Maldonado,Robstown,49.71,120.2,61.23,131.54,312.98,Single-ply,SBD,M,
Boys,51.71,2,Trey Wright,Mathis,51.17,90.72,49.9,117.93,258.55,Single-ply,SBD,M,
Boys,51.71,DQ,Noah Estrada,Agua Dulce,49.8,88.45,,,,Single-ply,SBD,M,
Boys,55.79,1,Chase Chapa,Port Lavaca Calhoun,54.88,183.7,113.4,222.26,519.36,Single-ply,SBD,M,
Boys,55.79,2,Matthew Lopez #2,Mathis,55.61,154.22,83.91,176.9,415.04,Single-ply,SBD,M,
Boys,55.79,3,David Perez,Ben Bolt-Palito Blanco,54.16,154.22,86.18,158.76,399.16,Single-ply,SBD,M,
Boys,55.79,4,Alex Vela,Corpus Christi Calallen,55.16,154.22,88.45,156.49,399.16,Single-ply,SBD,M,
Boys,55.79,5,Brian Dominguez,Corpus Christi Calallen,55.61,133.81,74.84,142.88,351.53,Single-ply,SBD,M,
Boys,55.79,6,Michael Benavides,Agua Dulce,53.89,129.27,77.11,140.61,347,Single-ply,SBD,M,
Boys,55.79,7,Isaiah Alaniz,Corpus Christi Tuloso-Midway,55.7,129.27,90.72,124.74,344.73,Single-ply,SBD,M,
Boys,55.79,8,Austin Lopez,Robstown,55.7,124.74,61.23,142.88,328.85,Single-ply,SBD,M,
Boys,55.79,9,Ryan Perez,Ben Bolt-Palito Blanco,54.79,120.2,77.11,127.01,324.32,Single-ply,SBD,M,
Boys,55.79,10,Jonathan Conway,Agua Dulce,52.62,88.45,56.7,117.93,263.08,Single-ply,SBD,M,
Boys,55.79,11,Carson Guidry,Taft,54.07,86.18,61.23,106.59,254.01,Single-ply,SBD,M,
Boys,59.87,1,Jakob Cortez,Port Lavaca Calhoun,59.15,217.72,99.79,222.26,539.77,Single-ply,SBD,M,
Boys,59.87,2,Robert Rios,Mathis,58.42,181.44,97.52,204.12,483.08,Single-ply,SBD,M,
Boys,59.87,3,Michael Lopez,Robstown,59.87,172.37,99.79,181.44,453.59,Single-ply,SBD,M,
Boys,59.87,4,Corey Francis,Beeville Jones,59.87,140.61,115.67,156.49,412.77,Single-ply,SBD,M,
Boys,59.87,5,Julian Cadena,Corpus Christi Calallen,58.97,142.88,99.79,156.49,399.16,Single-ply,SBD,M,
Boys,59.87,6,John Contreras,Beeville Jones,57.7,145.15,61.23,170.1,376.48,Single-ply,SBD,M,
Boys,59.87,7,Christan Perez,Gregory-Portland,57.15,138.35,83.91,151.95,374.21,Single-ply,SBD,M,
Boys,59.87,8,Ezra Salazar,Corpus Christi Tuloso-Midway,59.78,147.42,79.38,133.81,360.61,Single-ply,SBD,M,
Boys,67.13,1,Andrew Vasquez,Corpus Christi Calallen,65.77,201.85,113.4,197.31,512.56,Single-ply,SBD,M,
Boys,67.13,2,Jody Ruiz,Mathis,65.95,170.1,149.69,190.51,510.29,Single-ply,SBD,M,
Boys,67.13,3,Douglas Escobedo,Gregory-Portland,64.14,174.63,95.25,183.7,453.59,Single-ply,SBD,M,
Boys,67.13,4,Abel Cervantez,Sinton,66.32,165.56,99.79,183.7,449.06,Single-ply,SBD,M,
Boys,67.13,5,Luke Davis,Sinton,65.05,161.03,102.06,181.44,444.52,Single-ply,SBD,M,
Boys,67.13,6,Joseph Chavez,Taft,67.13,165.56,83.91,192.78,442.25,Single-ply,SBD,M,
Boys,67.13,7,Juan Lopez,Robstown,63.23,147.42,102.06,158.76,408.23,Single-ply,SBD,M,
Boys,67.13,8,Ethan Vasquez,Alice,63.96,145.15,102.06,158.76,405.97,Single-ply,SBD,M,
Boys,67.13,9,Eh Lev Moo,Port Lavaca Calhoun,63.87,142.88,77.11,165.56,385.55,Single-ply,SBD,M,
Boys,67.13,10,Zack Guzman,Gregory-Portland,65.23,140.61,79.38,147.42,367.41,Single-ply,SBD,M,
Boys,67.13,11,Frankie Torres #2,Taft,64.59,113.4,68.04,133.81,315.25,Single-ply,SBD,M,
Boys,67.13,12,Dylan Vasquez,Corpus Christi John Paul II High School,64.86,83.91,72.57,122.47,278.96,Single-ply,SBD,M,
Boys,74.84,1,Chiso Nwampka,Corpus Christi Tuloso-Midway,74.57,215.46,147.42,240.4,603.28,Single-ply,SBD,M,
Boys,74.84,2,Mat Mora,Corpus Christi Tuloso-Midway,73.84,235.87,140.61,213.19,589.67,Single-ply,SBD,M,
Boys,74.84,3,Samuel Torres,Port Lavaca Calhoun,74.39,197.31,124.74,197.31,519.36,Single-ply,SBD,M,
Boys,74.84,4,Jose Reynaga,Port Lavaca Calhoun,73.39,192.78,108.86,204.12,505.76,Single-ply,SBD,M,
Boys,74.84,5,Exander Gamez,Sinton,74.12,183.7,115.67,183.7,483.08,Single-ply,SBD,M,
Boys,74.84,6,Jose Vasquez,Corpus Christi Calallen,70.22,158.76,97.52,199.58,455.86,Single-ply,SBD,M,
Boys,74.84,7,Javier Salas,Corpus Christi London,73.94,170.1,95.25,147.42,412.77,Single-ply,SBD,M,
Boys,74.84,8,Adrien Perez,Robstown,72.57,145.15,92.99,170.1,408.23,Single-ply,SBD,M,
Boys,74.84,9,Jeremiah Nino,Sinton,73.66,158.76,88.45,156.49,403.7,Single-ply,SBD,M,
Boys,74.84,10,Alec Puente,Beeville Jones,70.13,154.22,83.91,154.22,392.36,Single-ply,SBD,M,
Boys,74.84,11,Emmanuel Flores,Port Lavaca Calhoun,70.13,147.42,72.57,163.29,383.29,Single-ply,SBD,M,
Boys,74.84,DQ,Vince Escobedo,Gregory-Portland,72.39,199.58,,,,Single-ply,SBD,M,
Boys,82.1,1,Demetri Sanchez,Corpus Christi London,81.74,217.72,124.74,240.4,582.87,Single-ply,SBD,M,
Boys,82.1,2,Marcus Trejo,Sinton,81.65,219.99,111.13,213.19,544.31,Single-ply,SBD,M,
Boys,82.1,3,Xavier Smith,Port Lavaca Calhoun,81.47,183.7,124.74,213.19,521.63,Single-ply,SBD,M,
Boys,82.1,4,Alan Rodriguez,Corpus Christi Tuloso-Midway,80.74,204.12,129.27,185.97,519.36,Single-ply,SBD,M,
Boys,82.1,5,Gavin Gonzalez,Corpus Christi Tuloso-Midway,79.56,185.97,111.13,183.7,480.81,Single-ply,SBD,M,
Boys,82.1,6,Jacob Charles,Corpus Christi London,78.29,172.37,102.06,204.12,478.54,Single-ply,SBD,M,
Boys,82.1,7,Jaron Marshall,Corpus Christi Tuloso-Midway,81.92,174.63,104.33,185.97,464.93,Single-ply,SBD,M,
Boys,82.1,8,Mikal Celis,Corpus Christi John Paul II High School,81.92,142.88,92.99,183.7,419.57,Single-ply,SBD,M,
Boys,82.1,9,Adrian Gonzales,Gregory-Portland,79.74,154.22,83.91,158.76,396.89,Single-ply,SBD,M,
Boys,82.1,10,Jason Drummond,Gregory-Portland,79.11,151.95,81.65,147.42,381.02,Single-ply,SBD,M,
Boys,82.1,11,Alfredo Baeza,Alice,79.74,142.88,83.91,149.69,376.48,Single-ply,SBD,M,
Boys,89.81,1,Jaime Rios #1,Port Lavaca Calhoun,88.63,283.5,154.22,265.35,703.07,Single-ply,SBD,M,
Boys,89.81,2,Cody Rosas,Robstown,89.45,226.8,145.15,213.19,585.13,Single-ply,SBD,M,
Boys,89.81,3,Marcus Gutierrez,Beeville Jones,86.45,199.58,111.13,199.58,510.29,Single-ply,SBD,M,
Boys,89.81,4,Trinidad Salazar,Corpus Christi Tuloso-Midway,82.92,183.7,113.4,206.38,503.49,Single-ply,SBD,M,
Boys,89.81,5,Joseph Fillmore,Corpus Christi John Paul II High School,89.81,197.31,104.33,201.85,503.49,Single-ply,SBD,M,
Boys,89.81,6,Martin Garcia,Gregory-Portland,83.01,199.58,106.59,158.76,464.93,Single-ply,SBD,M,
Boys,89.81,7,Pavan Patel,Port Lavaca Calhoun,88.45,176.9,83.91,192.78,453.59,Single-ply,SBD,M,
Boys,89.81,8,Matthew Salinas,Beeville Jones,87.45,158.76,115.67,165.56,439.98,Single-ply,SBD,M,
Boys,89.81,9,Pablo Fernandez,Alice,84.82,163.29,95.25,176.9,435.45,Single-ply,SBD,M,
Boys,89.81,10,Shawn Davis,Alice,89.81,183.7,97.52,149.69,430.91,Single-ply,SBD,M,
Boys,89.81,11,Anastacio Lopez,Taft,84.1,151.95,70.31,161.03,383.29,Single-ply,SBD,M,
Boys,89.81,12,Jaykob De La Paz,Corpus Christi Calallen,86,133.81,90.72,156.49,381.02,Single-ply,SBD,M,
Boys,89.81,13,Evan Eden,Corpus Christi Calallen,83.01,124.74,90.72,161.03,376.48,Single-ply,SBD,M,
Boys,99.79,1,Marcos Gonzalez,Ben Bolt-Palito Blanco,99.34,265.35,158.76,226.8,650.91,Single-ply,SBD,M,
Boys,99.79,2,Ambrose Patton,Beeville Jones,98.16,240.4,142.88,240.4,623.69,Single-ply,SBD,M,
Boys,99.79,3,Aj Ortega,Corpus Christi Calallen,97.61,267.62,142.88,206.38,616.89,Single-ply,SBD,M,
Boys,99.79,4,Joseph Beebe,Port Lavaca Calhoun,93.17,226.8,142.88,222.26,591.94,Single-ply,SBD,M,
Boys,99.79,5,Jake Arroyos,Beeville Jones,97.98,226.8,142.88,219.99,589.67,Single-ply,SBD,M,
Boys,99.79,6,Dante DeLeon,Mathis,97.98,231.33,145.15,208.65,585.13,Single-ply,SBD,M,
Boys,99.79,7,Jacob Castellanos,Corpus Christi Calallen,99.16,215.46,129.27,226.8,571.53,Single-ply,SBD,M,
Boys,99.79,8,Brody Raines,Gregory-Portland,97.34,217.72,117.93,215.46,551.11,Single-ply,SBD,M,
Boys,99.79,9,Isaac Martinez,Corpus Christi Tuloso-Midway,99.52,219.99,131.54,185.97,537.51,Single-ply,SBD,M,
Boys,99.79,10,Santos Castillo,Agua Dulce,98.7,213.19,104.33,190.51,508.02,Single-ply,SBD,M,
Boys,99.79,11,Alex Gaona,Beeville Jones,96.8,163.29,117.93,172.37,453.59,Single-ply,SBD,M,
Boys,99.79,12,Agapito Carrera,Taft,97.25,147.42,92.99,170.1,410.5,Single-ply,SBD,M,
Boys,99.79,13,Roland Guerra,Agua Dulce,91.17,124.74,63.5,165.56,353.8,Single-ply,SBD,M,
Boys,99.79,14,Gilbert Herrera,Beeville Jones,92.71,120.2,88.45,138.35,347,Single-ply,SBD,M,
Boys,99.79,15,Ivan Rangel,Corpus Christi Calallen,93.62,127.01,72.57,145.15,344.73,Single-ply,SBD,M,
Boys,99.79,16,Jake Torrez,Agua Dulce,91.9,117.93,52.16,136.08,306.17,Single-ply,SBD,M,
Boys,109.77,1,Brandon Rodriguez #2,Robstown,105.23,226.8,167.83,233.6,628.23,Single-ply,SBD,M,
Boys,109.77,2,Steve Peña #2,Robstown,104.69,219.99,167.83,219.99,607.81,Single-ply,SBD,M,
Boys,109.77,3,Mason Pena,Ben Bolt-Palito Blanco,109.13,226.8,142.88,215.46,585.13,Single-ply,SBD,M,
Boys,109.77,4,Dylan Lageschulte,Corpus Christi Calallen,101.42,208.65,129.27,217.72,555.65,Single-ply,SBD,M,
Boys,109.77,5,Riccardo Carrion,Corpus Christi Calallen,106.23,206.38,122.47,208.65,537.51,Single-ply,SBD,M,
Boys,109.77,6,Jayden Rodriguez,Corpus Christi Calallen,106.96,174.63,120.2,195.04,489.88,Single-ply,SBD,M,
Boys,109.77,7,Jesse Perez,Agua Dulce,102.33,181.44,97.52,174.63,453.59,Single-ply,SBD,M,
Boys,109.77,8,John Enriquez,Corpus Christi Calallen,106.23,174.63,83.91,185.97,444.52,Single-ply,SBD,M,
Boys,109.77,9,Joshua Villela,Gregory-Portland,108.05,149.69,113.4,165.56,428.64,Single-ply,SBD,M,
Boys,109.77,10,Lee Andrew Moreno,Taft,109.5,142.88,106.59,142.88,392.36,Single-ply,SBD,M,
Boys,109.77,11,Cooper Kennemer,Agua Dulce,103.24,145.15,68.04,163.29,376.48,Single-ply,SBD,M,
Boys,124.74,1,Paul Pena,Robstown,123.01,272.16,145.15,240.4,657.71,Single-ply,SBD,M,
Boys,124.74,2,Diego Gutierrez,Mathis,121.93,260.82,163.29,213.19,637.3,Single-ply,SBD,M,
Boys,124.74,3,Mark Lara,Gregory-Portland,117.75,242.67,140.61,215.46,598.74,Single-ply,SBD,M,
Boys,124.74,4,Elija Brown,Sinton,123.1,219.99,131.54,201.85,553.38,Single-ply,SBD,M,
Boys,124.74,5,Noah Cortinas,Corpus Christi John Paul II High School,118.21,201.85,133.81,197.31,532.97,Single-ply,SBD,M,
Boys,124.74,6,Robert Kroen,Corpus Christi Tuloso-Midway,120.56,206.38,122.47,179.17,508.02,Single-ply,SBD,M,
Boys,124.74,7,Ricardo Perez,Taft,119.84,188.24,113.4,192.78,494.42,Single-ply,SBD,M,
Boys,124.74+,1,Leo Soliz,Corpus Christi Tuloso-Midway,129.82,294.84,174.63,260.82,730.28,Single-ply,SBD,M,
Boys,124.74+,2,Damian Chavez,Port Lavaca Calhoun,140.25,299.37,145.15,226.8,671.32,Single-ply,SBD,M,
Boys,124.74+,3,Richard Fierros,Gregory-Portland,145.97,263.08,136.08,240.4,639.57,Single-ply,SBD,M,
Boys,124.74+,4,Mark Pena,Robstown,127.73,204.12,131.54,185.97,521.63,Single-ply,SBD,M,
Boys,124.74+,5,John Ayala,Corpus Christi John Paul II High School,135.44,127.01,117.93,215.46,460.4,Single-ply,SBD,M,
Boys,124.74+,6,Ventura Leal,Robstown,128.19,163.29,124.74,170.1,458.13,Single-ply,SBD,M,
Boys,124.74+,7,Tony Chavez,Taft,161.57,142.88,111.13,183.7,437.72,Single-ply,SBD,M,
